Sport,Event,Gender,Medal,Country,EventDate
Biathlon,7.5 km Sprint,Women,Gold,Germany,20180210
Biathlon,7.5 km Sprint,Women,Silver,Norway,20180210
Biathlon,7.5 km Sprint,Women,Bronze,Czech Republic,20180210
Cross-Country Skiing,Skiathlon 7.5km Classic + 7.5km Free,Women,Gold,Sweden,20180210
Cross-Country Skiing,Skiathlon 7.5km Classic + 7.5km Free,Women,Silver,Norway,20180210
Cross-Country Skiing,Skiathlon 7.5km Classic + 7.5km Free,Women,Bronze,Finland,20180210
Short Track Speed Skating,1500 m,Men,Gold,South Korea,20180210
Short Track Speed Skating,1500 m,Men,Silver,Netherlands,20180210
Short Track Speed Skating,1500 m,Men,Bronze,Olympic Athletes from Russia,20180210
Ski Jumping,K90 Individual,Men,Gold,Germany,20180210
Ski Jumping,K90 Individual,Men,Silver,Norway,20180210
Ski Jumping,K90 Individual,Men,Bronze,Norway,20180210
Speed Skating,3000 m,Women,Gold,Netherlands,20180210
Speed Skating,3000 m,Women,Silver,Netherlands,20180210
Speed Skating,3000 m,Women,Bronze,Netherlands,20180210
Biathlon,10 km Sprint,Men,Gold,Germany,20180211
Biathlon,10 km Sprint,Men,Silver,Czech Republic,20180211
Biathlon,10 km Sprint,Men,Bronze,Italy,20180211
Cross-Country Skiing,Skiathlon 15km Classic + 15km Free,Men,Gold,Norway,20180211
Cross-Country Skiing,Skiathlon 15km Classic + 15km Free,Men,Silver,Norway,20180211
Cross-Country Skiing,Skiathlon 15km Classic + 15km Free,Men,Bronze,Norway,20180211
Freestyle Skiing,Moguls,Women,Gold,France,20180211
Freestyle Skiing,Moguls,Women,Silver,Canada,20180211
Freestyle Skiing,Moguls,Women,Bronze,Kazakhstan,20180211
Luge,Singles,Men,Gold,Austria,20180211
Luge,Singles,Men,Silver,United States of America,20180211
Luge,Singles,Men,Bronze,Germany,20180211
Snowboard,Slopestyle,Men,Gold,United States of America,20180211
Snowboard,Slopestyle,Men,Silver,Canada,20180211
Snowboard,Slopestyle,Men,Bronze,Canada,20180211
Speed Skating,5000 m,Men,Gold,Netherlands,20180211
Speed Skating,5000 m,Men,Silver,Canada,20180211
Speed Skating,5000 m,Men,Bronze,Norway,20180211
Biathlon,10 km Pursuit,Women,Gold,Germany,20180212
Biathlon,10 km Pursuit,Women,Silver,Slovakia,20180212
Biathlon,10 km Pursuit,Women,Bronze,France,20180212
Biathlon,12.5 km Pursuit,Men,Gold,France,20180212
Biathlon,12.5 km Pursuit,Men,Silver,Sweden,20180212
Biathlon,12.5 km Pursuit,Men,Bronze,Germany,20180212
Figure Skating,Team,Mixed,Gold,Canada,20180212
Figure Skating,Team,Mixed,Silver,Olympic Athletes from Russia,20180212
Figure Skating,Team,Mixed,Bronze,United States of America,20180212
Freestyle Skiing,Moguls,Men,Gold,Canada,20180212
Freestyle Skiing,Moguls,Men,Silver,Australia,20180212
Freestyle Skiing,Moguls,Men,Bronze,Japan,20180212
Ski Jumping,K90 Individual,Women,Gold,Norway,20180212
Ski Jumping,K90 Individual,Women,Silver,Germany,20180212
Ski Jumping,K90 Individual,Women,Bronze,Japan,20180212
Snowboard,Slopestyle,Women,Gold,United States of America,20180212
Snowboard,Slopestyle,Women,Silver,Canada,20180212
Snowboard,Slopestyle,Women,Bronze,Finland,20180212
Speed Skating,1500 m,Women,Gold,Netherlands,20180212
Speed Skating,1500 m,Women,Silver,Japan,20180212
Speed Skating,1500 m,Women,Bronze,Netherlands,20180212
Alpine Skiing,Combined,Men,Gold,Austria,20180213
Alpine Skiing,Combined,Men,Silver,France,20180213
Alpine Skiing,Combined,Men,Bronze,France,20180213
Cross-Country Skiing,Sprint 1.5km Free,Women,Gold,Sweden,20180213
Cross-Country Skiing,Sprint 1.5km Free,Women,Silver,Norway,20180213
Cross-Country Skiing,Sprint 1.5km Free,Women,Bronze,Olympic Athletes from Russia,20180213
Cross-Country Skiing,Sprint 1.5km Free,Men,Gold,Norway,20180213
Cross-Country Skiing,Sprint 1.5km Free,Men,Silver,Italy,20180213
Cross-Country Skiing,Sprint 1.5km Free,Men,Bronze,Olympic Athletes from Russia,20180213
Curling,Doubles,Mixed,Gold,Canada,20180213
Curling,Doubles,Mixed,Silver,Switzerland,20180213
Curling,Doubles,Mixed,Bronze,Norway,20180213
Luge,Singles,Women,Gold,Germany,20180213
Luge,Singles,Women,Silver,Germany,20180213
Luge,Singles,Women,Bronze,Canada,20180213
Short Track Speed Skating,500 m,Women,Gold,Italy,20180213
Short Track Speed Skating,500 m,Women,Silver,Netherlands,20180213
Short Track Speed Skating,500 m,Women,Bronze,Canada,20180213
Snowboard,Halfpipe,Women,Gold,United States of America,20180213
Snowboard,Halfpipe,Women,Silver,China,20180213
Snowboard,Halfpipe,Women,Bronze,United States of America,20180213
Speed Skating,1500 m,Men,Gold,Netherlands,20180213
Speed Skating,1500 m,Men,Silver,Netherlands,20180213
Speed Skating,1500 m,Men,Bronze,South Korea,20180213
Luge,Doubles,Men,Gold,Germany,20180214
Luge,Doubles,Men,Silver,Austria,20180214
Luge,Doubles,Men,Bronze,Germany,20180214
Nordic Combined,Individual,Men,Gold,Germany,20180214
Nordic Combined,Individual,Men,Silver,Japan,20180214
Nordic Combined,Individual,Men,Bronze,Austria,20180214
Snowboard,Halfpipe,Men,Gold,United States of America,20180214
Snowboard,Halfpipe,Men,Silver,Japan,20180214
Snowboard,Halfpipe,Men,Bronze,Australia,20180214
Speed Skating,1000 m,Women,Gold,Netherlands,20180214
Speed Skating,1000 m,Women,Silver,Japan,20180214
Speed Skating,1000 m,Women,Bronze,Japan,20180214
Alpine Skiing,Downhill,Men,Gold,Norway,20180215
Alpine Skiing,Downhill,Men,Silver,Norway,20180215
Alpine Skiing,Downhill,Men,Bronze,Switzerland,20180215
Alpine Skiing,Giant Slalom,Women,Gold,United States of America,20180215
Alpine Skiing,Giant Slalom,Women,Silver,Norway,20180215
Alpine Skiing,Giant Slalom,Women,Bronze,Italy,20180215
Biathlon,15 km Individual,Women,Gold,Sweden,20180215
Biathlon,15 km Individual,Women,Silver,Slovakia,20180215
Biathlon,15 km Individual,Women,Bronze,Germany,20180215
Biathlon,20 km Individual,Men,Gold,Norway,20180215
Biathlon,20 km Individual,Men,Silver,Slovenia,20180215
Biathlon,20 km Individual,Men,Bronze,Austria,20180215
Cross-Country Skiing,10 km Classic,Women,Gold,Norway,20180215
Cross-Country Skiing,10 km Classic,Women,Silver,Sweden,20180215
Cross-Country Skiing,10 km Classic,Women,Bronze,Norway,20180215
Cross-Country Skiing,10 km Classic,Women,Bronze,Finland,20180215
Figure Skating,Pairs,Mixed,Gold,Germany,20180215
Figure Skating,Pairs,Mixed,Silver,China,20180215
Figure Skating,Pairs,Mixed,Bronze,Canada,20180215
Luge,Team Relay,Men,Gold,Germany,20180215
Luge,Team Relay,Men,Silver,Canada,20180215
Luge,Team Relay,Men,Bronze,Austria,20180215
Snowboard,Snowboard Cross,Men,Gold,France,20180215
Snowboard,Snowboard Cross,Men,Silver,Australia,20180215
Snowboard,Snowboard Cross,Men,Bronze,Spain,20180215
Speed Skating,"10,000 m",Men,Gold,Canada,20180215
Speed Skating,"10,000 m",Men,Silver,Netherlands,20180215
Speed Skating,"10,000 m",Men,Bronze,Italy,20180215
Alpine Skiing,Super-G,Men,Gold,Austria,20180216
Alpine Skiing,Super-G,Men,Silver,Switzerland,20180216
Alpine Skiing,Super-G,Men,Bronze,Norway,20180216
Alpine Skiing,Slalom,Women,Gold,Sweden,20180216
Alpine Skiing,Slalom,Women,Silver,Switzerland,20180216
Alpine Skiing,Slalom,Women,Bronze,Austria,20180216
Cross-Country Skiing,15km Classic,Men,Gold,Switzerland,20180216
Cross-Country Skiing,15km Classic,Men,Silver,Norway,20180216
Cross-Country Skiing,15km Classic,Men,Bronze,Olympic Athletes from Russia,20180216
Freestyle Skiing,Aerials,Women,Gold,Belarus,20180216
Freestyle Skiing,Aerials,Women,Silver,China,20180216
Freestyle Skiing,Aerials,Women,Bronze,China,20180216
Skeleton,Skeleton,Men,Gold,South Korea,20180216
Skeleton,Skeleton,Men,Silver,Olympic Athletes from Russia,20180216
Skeleton,Skeleton,Men,Bronze,Great Britain,20180216
Snowboard,Snowboard Cross,Women,Gold,Italy,20180216
Snowboard,Snowboard Cross,Women,Silver,France,20180216
Snowboard,Snowboard Cross,Women,Bronze,Czech Republic,20180216
Speed Skating,5000 m,Women,Gold,Netherlands,20180216
Speed Skating,5000 m,Women,Silver,Czech Republic,20180216
Speed Skating,5000 m,Women,Bronze,Olympic Athletes from Russia,20180216
Alpine Skiing,Super-G,Women,Gold,Czech Republic,20180217
Alpine Skiing,Super-G,Women,Silver,Austria,20180217
Alpine Skiing,Super-G,Women,Bronze,Liechtenstein,20180217
Biathlon,12.5 km Mass Start,Women,Gold,Slovakia,20180217
Biathlon,12.5 km Mass Start,Women,Silver,Belarus,20180217
Biathlon,12.5 km Mass Start,Women,Bronze,Norway,20180217
Cross-Country Skiing,4 x 5 km Relay,Women,Gold,Norway,20180217
Cross-Country Skiing,4 x 5 km Relay,Women,Silver,Sweden,20180217
Cross-Country Skiing,4 x 5 km Relay,Women,Bronze,Olympic Athletes from Russia,20180217
Figure Skating,Individual,Men,Gold,Japan,20180217
Figure Skating,Individual,Men,Silver,Japan,20180217
Figure Skating,Individual,Men,Bronze,Spain,20180217
Freestyle Skiing,Slopestyle,Women,Gold,Switzerland,20180217
Freestyle Skiing,Slopestyle,Women,Silver,Switzerland,20180217
Freestyle Skiing,Slopestyle,Women,Bronze,Great Britain,20180217
Short Track Speed Skating,1500 m,Women,Gold,South Korea,20180217
Short Track Speed Skating,1500 m,Women,Silver,China,20180217
Short Track Speed Skating,1500 m,Women,Bronze,Canada,20180217
Short Track Speed Skating,1000 m,Men,Gold,Canada,20180217
Short Track Speed Skating,1000 m,Men,Silver,United States of America,20180217
Short Track Speed Skating,1000 m,Men,Bronze,South Korea,20180217
Skeleton,Individual,Women,Gold,Great Britain,20180217
Skeleton,Individual,Women,Silver,Germany,20180217
Skeleton,Individual,Women,Bronze,Great Britain,20180217
Ski Jumping,K120,Men,Gold,Poland,20180217
Ski Jumping,K120,Men,Silver,Germany,20180217
Ski Jumping,K120,Men,Bronze,Norway,20180217
Alpine Skiing,Giant Slalom,Men,Gold,Austria,20180218
Alpine Skiing,Giant Slalom,Men,Silver,Norway,20180218
Alpine Skiing,Giant Slalom,Men,Bronze,France,20180218
Biathlon,15 km Mass Start,Men,Gold,France,20180218
Biathlon,15 km Mass Start,Men,Silver,Germany,20180218
Biathlon,15 km Mass Start,Men,Bronze,Norway,20180218
Cross-Country Skiing,4 x 10 km Relay,Men,Gold,Norway,20180218
Cross-Country Skiing,4 x 10 km Relay,Men,Silver,Olympic Athletes from Russia,20180218
Cross-Country Skiing,4 x 10 km Relay,Men,Bronze,France,20180218
Freestyle Skiing,Slopestyle,Men,Gold,Norway,20180218
Freestyle Skiing,Slopestyle,Men,Silver,United States of America,20180218
Freestyle Skiing,Slopestyle,Men,Bronze,Canada,20180218
Freestyle Skiing,Aerials,Men,Gold,Ukraine,20180218
Freestyle Skiing,Aerials,Men,Silver,China,20180218
Freestyle Skiing,Aerials,Men,Bronze,Olympic Athletes from Russia,20180218
Speed Skating,500 m,Women,Gold,Japan,20180218
Speed Skating,500 m,Women,Silver,South Korea,20180218
Speed Skating,500 m,Women,Bronze,Czech Republic,20180218
Bobsleigh,Two Man,Men,Gold,Canada,20180219
Bobsleigh,Two Man,Men,Gold,Germany,20180219
Bobsleigh,Two Man,Men,Bronze,Latvia,20180219
Ski Jumping,Team,Men,Gold,Norway,20180219
Ski Jumping,Team,Men,Silver,Germany,20180219
Ski Jumping,Team,Men,Bronze,Poland,20180219
Speed Skating,500 m,Men,Gold,Norway,20180219
Speed Skating,500 m,Men,Silver,South Korea,20180219
Speed Skating,500 m,Men,Bronze,China,20180219
Biathlon,Relay,Mixed,Gold,France,20180220
Biathlon,Relay,Mixed,Silver,Norway,20180220
Biathlon,Relay,Mixed,Bronze,Italy,20180220
Figure Skating,Ice Dance,Mixed,Gold,Canada,20180220
Figure Skating,Ice Dance,Mixed,Silver,France,20180220
Figure Skating,Ice Dance,Mixed,Bronze,United States of America,20180220
Freestyle Skiing,Halfpipe,Women,Gold,Canada,20180220
Freestyle Skiing,Halfpipe,Women,Silver,France,20180220
Freestyle Skiing,Halfpipe,Women,Bronze,United States of America,20180220
Nordic Combined,K120 Sprint,Men,Gold,Germany,20180220
Nordic Combined,K120 Sprint,Men,Silver,Germany,20180220
Nordic Combined,K120 Sprint,Men,Bronze,Germany,20180220
Short Track Speed Skating,3000 m Relay,Women,Gold,South Korea,20180220
Short Track Speed Skating,3000 m Relay,Women,Silver,Italy,20180220
Short Track Speed Skating,3000 m Relay,Women,Bronze,Netherlands,20180220
Alpine Skiing,Downhill,Women,Gold,Italy,20180221
Alpine Skiing,Downhill,Women,Silver,Norway,20180221
Alpine Skiing,Downhill,Women,Bronze,United States of America,20180221
Bobsleigh,Two Man,Women,Gold,Germany,20180221
Bobsleigh,Two Man,Women,Silver,United States of America,20180221
Bobsleigh,Two Man,Women,Bronze,Canada,20180221
Cross-Country Skiing,Team Sprint,Women,Gold,United States of America,20180221
Cross-Country Skiing,Team Sprint,Women,Silver,Sweden,20180221
Cross-Country Skiing,Team Sprint,Women,Bronze,Norway,20180221
Cross-Country Skiing,Team Sprint,Men,Gold,Norway,20180221
Cross-Country Skiing,Team Sprint,Men,Silver,Olympic Athletes from Russia,20180221
Cross-Country Skiing,Team Sprint,Men,Bronze,France,20180221
Freestyle Skiing,Ski Cross,Men,Gold,Canada,20180221
Freestyle Skiing,Ski Cross,Men,Silver,Switzerland,20180221
Freestyle Skiing,Ski Cross,Men,Bronze,Olympic Athletes from Russia,20180221
Ice Hockey,Ice Hockey,Women,Bronze,Finland,20180221
Speed Skating,Team Pursuit,Women,Gold,Japan,20180221
Speed Skating,Team Pursuit,Women,Silver,Netherlands,20180221
Speed Skating,Team Pursuit,Women,Bronze,United States of America,20180221
Speed Skating,Team Pursuit,Men,Gold,Norway,20180221
Speed Skating,Team Pursuit,Men,Silver,South Korea,20180221
Speed Skating,Team Pursuit,Men,Bronze,Netherlands,20180221
Alpine Skiing,Slalom,Men,Gold,Sweden,20180222
Alpine Skiing,Slalom,Men,Silver,Switzerland,20180222
Alpine Skiing,Slalom,Men,Bronze,Austria,20180222
Alpine Skiing,Combined,Women,Gold,Switzerland,20180222
Alpine Skiing,Combined,Women,Silver,United States of America,20180222
Alpine Skiing,Combined,Women,Bronze,Switzerland,20180222
Biathlon,4 x 6 km Relay,Women,Gold,Belarus,20180222
Biathlon,4 x 6 km Relay,Women,Silver,Sweden,20180222
Biathlon,4 x 6 km Relay,Women,Bronze,France,20180222
Freestyle Skiing,Halfpipe,Men,Gold,United States of America,20180222
Freestyle Skiing,Halfpipe,Men,Silver,United States of America,20180222
Freestyle Skiing,Halfpipe,Men,Bronze,New Zealand,20180222
Ice Hockey,Ice Hockey,Women,Gold,United States of America,20180222
Ice Hockey,Ice Hockey,Women,Silver,Canada,20180222
Nordic Combined,Team,Men,Gold,Germany,20180222
Nordic Combined,Team,Men,Silver,Norway,20180222
Nordic Combined,Team,Men,Bronze,Austria,20180222
Short Track Speed Skating,500 m,Men,Gold,China,20180222
Short Track Speed Skating,500 m,Men,Silver,South Korea,20180222
Short Track Speed Skating,500 m,Men,Bronze,South Korea,20180222
Short Track Speed Skating,1000 m,Women,Gold,Netherlands,20180222
Short Track Speed Skating,1000 m,Women,Silver,Canada,20180222
Short Track Speed Skating,1000 m,Women,Bronze,Italy,20180222
Short Track Speed Skating,5000 m Relay,Men,Gold,Hungary,20180222
Short Track Speed Skating,5000 m Relay,Men,Silver,China,20180222
Short Track Speed Skating,5000 m Relay,Men,Bronze,Canada,20180222
Snowboard,Big Air,Women,Gold,Austria,20180222
Snowboard,Big Air,Women,Silver,United States of America,20180222
Snowboard,Big Air,Women,Bronze,New Zealand,20180222
Biathlon,4 x 7.5 km Relay,Men,Gold,,20180223
Biathlon,4 x 7.5 km Relay,Men,Silver,,20180223
Biathlon,4 x 7.5 km Relay,Men,Bronze,,20180223
Curling,Team,Men,Bronze,,20180223
Figure Skating,Individual,Women,Gold,,20180223
Figure Skating,Individual,Women,Silver,,20180223
Figure Skating,Individual,Women,Bronze,,20180223
Freestyle Skiing,Ski Cross,Women,Gold,,20180223
Freestyle Skiing,Ski Cross,Women,Silver,,20180223
Freestyle Skiing,Ski Cross,Women,Bronze,,20180223
Speed Skating,1000 m,Men,Gold,,20180223
Speed Skating,1000 m,Men,Silver,,20180223
Speed Skating,1000 m,Men,Bronze,,20180223
Alpine Skiing,Team Event,Mixed,Gold,,20180224
Alpine Skiing,Team Event,Mixed,Silver,,20180224
Alpine Skiing,Team Event,Mixed,Bronze,,20180224
Cross-Country Skiing,50 km Mass Start Classic,Men,Gold,,20180224
Cross-Country Skiing,50 km Mass Start Classic,Men,Silver,,20180224
Cross-Country Skiing,50 km Mass Start Classic,Men,Bronze,,20180224
Curling,Team,Men,Gold,,20180224
Curling,Team,Men,Silver,,20180224
Curling,Team,Women,Bronze,,20180224
Ice Hockey,Team,Men,Bronze,,20180224
Snowboard,Big Air,Men,Gold,,20180224
Snowboard,Big Air,Men,Silver,,20180224
Snowboard,Big Air,Men,Bronze,,20180224
Snowboard,Parallel Giant Slalom,Women,Gold,,20180224
Snowboard,Parallel Giant Slalom,Women,Silver,,20180224
Snowboard,Parallel Giant Slalom,Women,Bronze,,20180224
Snowboard,Parallel Giant Slalom,Men,Gold,,20180224
Snowboard,Parallel Giant Slalom,Men,Silver,,20180224
Snowboard,Parallel Giant Slalom,Men,Bronze,,20180224
Speed Skating,Mass Start,Women,Gold,,20180224
Speed Skating,Mass Start,Women,Silver,,20180224
Speed Skating,Mass Start,Women,Bronze,,20180224
Speed Skating,Mass Start,Men,Gold,,20180224
Speed Skating,Mass Start,Men,Silver,,20180224
Speed Skating,Mass Start,Men,Bronze,,20180224
Bobsleigh,4 Man,Men,Gold,,20180225
Bobsleigh,4 Man,Men,Silver,,20180225
Bobsleigh,4 Man,Men,Bronze,,20180225
Cross-Country Skiing,30 km Mass Start Classic,Women,Gold,,20180225
Cross-Country Skiing,30 km Mass Start Classic,Women,Silver,,20180225
Cross-Country Skiing,30 km Mass Start Classic,Women,Bronze,,20180225
Curling,Team,Women,Gold,,20180225
Curling,Team,Women,Silver,,20180225
Ice Hockey,Team,Men,Gold,,20180225
Ice Hockey,Team,Men,Silver,,20180225
